[
    {
        "file": "000.jpg",
        "person": "Mathilde Hamon",
        "business": "Le Fil de la Côte - Sellerie nautique",
        "cae": "CAE29",
        "author" : "Kalon Sardin"
    },
    {
        "file": "002.jpg",
        "person": "Mathieu Thomas",
        "business": "La Tête en l’air ! Girouettes de Ouessant",
        "cae": "CAE29",
        "author" : ""
    },
    {
        "file": "003.jpg",
        "person": "Mathieu Thomas",
        "business": "La Tête en l’air ! Girouettes de Ouessant",
        "cae": "CAE29",
        "author" : "Noémie Letu"
    }
]
